EESchema Schematic File Version 4
LIBS:LED's-cache
EELAYER 29 0
EELAYER END
$Descr A4 11693 8268
encoding utf-8
Sheet 1 1
Title ""
Date ""
Rev ""
Comp ""
Comment1 ""
Comment2 ""
Comment3 ""
Comment4 ""
$EndDescr
$Comp
L Transistor_BJT:2N2219 Q1
U 1 1 60B516B1
P 5050 4100
F 0 "Q1" H 5240 4146 50  0000 L CNN
F 1 "2N2219" H 5240 4055 50  0000 L CNN
F 2 "Package_TO_SOT_THT:TO-39-3" H 5250 4025 50  0001 L CIN
F 3 "http://www.onsemi.com/pub_link/Collateral/2N2219-D.PDF" H 5050 4100 50  0001 L CNN
	1    5050 4100
	1    0    0    -1  
$EndComp
$Comp
L Device:R_Small_US R3
U 1 1 60B522CE
P 4400 4100
F 0 "R3" V 4195 4100 50  0000 C CNN
F 1 "2.4k" V 4286 4100 50  0000 C CNN
F 2 "" H 4400 4100 50  0001 C CNN
F 3 "~" H 4400 4100 50  0001 C CNN
	1    4400 4100
	0    1    1    0   
$EndComp
$Comp
L Device:R_Small_US R4
U 1 1 60B529A8
P 5150 3450
F 0 "R4" H 5218 3496 50  0000 L CNN
F 1 "430" H 5218 3405 50  0000 L CNN
F 2 "" H 5150 3450 50  0001 C CNN
F 3 "~" H 5150 3450 50  0001 C CNN
	1    5150 3450
	1    0    0    -1  
$EndComp
$Comp
L Device:R_Small_US R1
U 1 1 60B52FD7
P 7100 3750
F 0 "R1" V 6895 3750 50  0000 C CNN
F 1 "62" V 6986 3750 50  0000 C CNN
F 2 "" H 7100 3750 50  0001 C CNN
F 3 "~" H 7100 3750 50  0001 C CNN
	1    7100 3750
	0    1    1    0   
$EndComp
$Comp
L Device:R_Small_US R2
U 1 1 60B5358E
P 7100 4200
F 0 "R2" V 6895 4200 50  0000 C CNN
F 1 "43" V 6986 4200 50  0000 C CNN
F 2 "" H 7100 4200 50  0001 C CNN
F 3 "~" H 7100 4200 50  0001 C CNN
	1    7100 4200
	0    1    1    0   
$EndComp
$Comp
L Device:LED D1
U 1 1 60B53D9F
P 6550 3750
F 0 "D1" H 6543 3966 50  0000 C CNN
F 1 "RED LED" H 6543 3875 50  0000 C CNN
F 2 "" H 6550 3750 50  0001 C CNN
F 3 "~" H 6550 3750 50  0001 C CNN
	1    6550 3750
	1    0    0    -1  
$EndComp
$Comp
L Device:LED D2
U 1 1 60B54225
P 6550 4200
F 0 "D2" H 6543 4416 50  0000 C CNN
F 1 "GREEN LED" H 6543 4325 50  0000 C CNN
F 2 "" H 6550 4200 50  0001 C CNN
F 3 "~" H 6550 4200 50  0001 C CNN
	1    6550 4200
	1    0    0    -1  
$EndComp
$Comp
L power:GND #PWR?
U 1 1 60B55112
P 5150 4450
F 0 "#PWR?" H 5150 4200 50  0001 C CNN
F 1 "GND" H 5155 4277 50  0000 C CNN
F 2 "" H 5150 4450 50  0001 C CNN
F 3 "" H 5150 4450 50  0001 C CNN
	1    5150 4450
	1    0    0    -1  
$EndComp
$Comp
L power:GND #PWR?
U 1 1 60B553A4
P 6150 4450
F 0 "#PWR?" H 6150 4200 50  0001 C CNN
F 1 "GND" H 6155 4277 50  0000 C CNN
F 2 "" H 6150 4450 50  0001 C CNN
F 3 "" H 6150 4450 50  0001 C CNN
	1    6150 4450
	1    0    0    -1  
$EndComp
Wire Wire Line
	6400 3750 6150 3750
Wire Wire Line
	6150 3750 6150 4200
Wire Wire Line
	6400 4200 6150 4200
Connection ~ 6150 4200
Wire Wire Line
	6150 4200 6150 4450
Wire Wire Line
	7000 4200 6700 4200
Wire Wire Line
	7000 3750 6700 3750
Wire Wire Line
	7200 3750 7400 3750
Wire Wire Line
	7200 4200 7400 4200
Wire Wire Line
	5150 4300 5150 4450
Wire Wire Line
	4850 4100 4500 4100
Wire Wire Line
	4300 4100 4050 4100
Wire Wire Line
	5150 3900 5150 3850
Wire Wire Line
	5150 3350 5150 3150
Wire Wire Line
	5150 3150 5000 3150
$Comp
L Device:LED D3
U 1 1 60B5757E
P 5150 3700
F 0 "D3" V 5189 3583 50  0000 R CNN
F 1 "BLUE LED" V 5098 3583 50  0000 R CNN
F 2 "" H 5150 3700 50  0001 C CNN
F 3 "~" H 5150 3700 50  0001 C CNN
	1    5150 3700
	0    -1   -1   0   
$EndComp
Text GLabel 4050 4100 0    50   Input ~ 0
out1
Text GLabel 7400 3750 2    50   Input ~ 0
out2
Text GLabel 7400 4200 2    50   Input ~ 0
out3
$Comp
L power:+12V #PWR?
U 1 1 60B5882B
P 5000 3150
F 0 "#PWR?" H 5000 3000 50  0001 C CNN
F 1 "+12V" H 5015 3323 50  0000 C CNN
F 2 "" H 5000 3150 50  0001 C CNN
F 3 "" H 5000 3150 50  0001 C CNN
	1    5000 3150
	1    0    0    -1  
$EndComp
Text Notes 8100 7650 0    50   ~ 0
31/05/21
Text Notes 7350 7500 0    50   ~ 0
Status LED's Schematic
Text Notes 10550 7650 0    50   ~ 0
1.0
Text Notes 8700 6950 0    50   ~ 0
MLXBAT001
Text Notes 8650 7750 0    50   ~ 0
Bertha Molai
$EndSCHEMATC
